src/Checker/simulation/qsim/checker.msim.vcd
$comment
	File created using the following command:
		vcd file checker.msim.vcd -direction
$end
$date
	Thu Nov 16 22:00:57 2023
$end
$version
	ModelSim Version 2020.1
$end
$timescale
	1ps
$end

$scope module checker_vhd_vec_tst $end
$var wire 1 ! clk $end
$var wire 1 " dIn $end
$var wire 1 # error $end
$var wire 1 $ nGRst $end

$scope module i1 $end
$var wire 1 % gnd $end
$var wire 1 & vcc $end
$var wire 1 ' unknown $end
$var wire 1 ( devoe $end
$var wire 1 ) devclrn $end
$var wire 1 * devpor $end
$var wire 1 + ww_devoe $end
$var wire 1 , ww_devclrn $end
$var wire 1 - ww_devpor $end
$var wire 1 . ww_nGRst $end
$var wire 1 / ww_clk $end
$var wire 1 0 ww_dIn $end
$var wire 1 1 ww_error $end
$var wire 1 2 \dIn~input_o\ $end
$var wire 1 3 \clk~input_o\ $end
$var wire 1 4 \nGRst~input_o\ $end
$var wire 1 5 \~QUARTUS_CREATED_GND~I_combout\ $end
$upscope $end
$upscope $end
$enddefinitions $end
#0
$dumpvars
0!
0"
1#
0$
0%
1&
x'
1(
1)
1*
1+
1,
1-
0.
0/
00
11
02
03
04
x5
$end
#130000
1"
10
12
#150000
1!
1/
13
#180000
0"
00
02
#210000
0!
0/
03
#230000
1"
10
12
#250000
1!
1/
13
#280000
0"
00
02
#340000
0!
0/
03
#370000
1$
1.
14
#390000
1!
1/
13
#420000
0$
0.
04
#450000
0!
0/
03
#510000
1!
1/
13
#590000
0!
0/
03
